 #include<windows.h>
 #pragma comment(lib, "kernel32.lib")
 #pragma comment(lib, "user32.lib")

 int APIENTRY WinMain(HINSTANCE hInstance,
                      HINSTANCE hPrevInstance,
                      LPSTR     lpCmdLine,
                      int       nCmdShow)
 {
       MessageBox(NULL, TEXT("hello world."), NULL, NULL);
       return 0;
 } 

==============================================CODE::BLOCKS====================================================================
直接编译运行即可，2017年官方版自带mingw-gcc编译器编译，亲测有效。


==============================================VC++ 6.0====================================================================
1.新建C++工程，此时直接编译运行报错“unresolved external symbol main”。
2.‘project’---‘setting’--- ‘link’最下一栏 “project options”，找到“/subsystem:console”改为“/subsystem: windows”。
3.编译运行，可看到弹窗。